<?xml version="1.0" encoding="UTF-8" standalone="no"?>
<svg
   version="1.0"
   width="720"
   height="504"
   viewBox="-2100 -1470 4200 2940"
   id="svg1024"
   sodipodi:docname="brazilFlag.svg"
   xmlns:inkscape="http://www.inkscape.org/namespaces/inkscape"
   xmlns:sodipodi="http://sodipodi.sourceforge.net/DTD/sodipodi-0.dtd"
   xmlns:xlink="http://www.w3.org/1999/xlink"
   xmlns="http://www.w3.org/2000/svg"
   xmlns:svg="http://www.w3.org/2000/svg">
  <sodipodi:namedview
     id="namedview1026"
     pagecolor="#505050"
     bordercolor="#ffffff"
     borderopacity="1"
     inkscape:showpageshadow="0"
     inkscape:pageopacity="0"
     inkscape:pagecheckerboard="1"
     inkscape:deskcolor="#505050"
     showgrid="false" />
  <defs
     id="defs952">
    <path
       id="D"
       d="m -31.5,0 h 33 a 30,30 0 0 0 30,-30 v -10 a 30,30 0 0 0 -30,-30 h -33 z m 13,-13 h 19 a 19,19 0 0 0 19,-19 v -6 a 19,19 0 0 0 -19,-19 h -19 z"
       fill-rule="evenodd" />
    <path
       id="E"
       d="M 0,0 H 63 V -13 H 12 V -31 H 52 V -43 H 12 V -57 H 60 V -70 H 0 Z"
       transform="translate(-31.5)" />
    <path
       id="e"
       d="m -26.25,0 h 52.5 v -12 h -40.5 v -16 h 33 v -12 h -33 V -51 H 25 v -12 h -51.25 z" />
    <g
       id="G">
      <clipPath
         id="gcut">
        <path
           d="m -31.5,0 v -70 h 63 V 0 Z M 0,-47 v 12 h 31.5 v -12 z"
           id="path915" />
      </clipPath>
      <use
         xlink:href="#O"
         clip-path="url(#gcut)"
         id="use918" />
      <rect
         x="5"
         y="-35"
         width="26.5"
         height="10"
         id="rect920" />
      <rect
         x="21.5"
         y="-35"
         width="10"
         height="35"
         id="rect922" />
    </g>
    <path
       id="M"
       d="m -31.5,0 h 12 v -48 l 14,48 h 11 l 14,-48 V 0 h 12 V -70 H 14 L 0,-22 -14,-70 h -17.5 z" />
    <path
       id="O"
       d="M 0,0 A 31.5,35 0 0 0 0,-70 31.5,35 0 0 0 0,0 m 0,-13 a 18.5,22 0 0 0 0,-44 18.5,22 0 0 0 0,44"
       fill-rule="evenodd" />
    <path
       id="P"
       d="m -31.5,0 h 13 v -26 h 28 a 22,22 0 0 0 0,-44 h -40 z m 13,-39 h 27 a 9,9 0 0 0 0,-18 h -27 z"
       fill-rule="evenodd" />
    <g
       id="R">
      <use
         xlink:href="#P"
         id="use928" />
      <path
         d="m 28,0 c 0,-10 0,-32 -15,-32 H -6 c 22,0 22,22 22,32"
         id="path930" />
    </g>
    <path
       id="S"
       d="m -15.75,-22 c 0,7 6.75,10.5 16.75,10.5 10,0 14.74,-3.25 14.75,-7.75 C 15.75,-33.5 -31,-24.5 -30.75,-49.5 -30.5,-71 -6,-70 3,-70 c 9,0 26,4 25.75,21.25 H 13.5 c 0,-7.5 -7,-10.25 -15,-10.25 -7.75,0 -13.25,1.25 -13.25,8.5 -0.25,11.75 46.25,4 46.25,28.75 C 31.5,-3.5 13.5,0 0,0 -11.5,0 -31.55,-4.5 -31.5,-22 Z" />
    <g
       id="star"
       fill="#ffffff">
      <g
         id="c">
        <path
           id="t"
           d="M 0,-1 V 0 H 0.5"
           transform="rotate(18,0,-1)" />
        <use
           xlink:href="#t"
           transform="scale(-1,1)"
           id="use935" />
      </g>
      <use
         xlink:href="#c"
         transform="rotate(72)"
         id="use938" />
      <use
         xlink:href="#c"
         transform="rotate(-72)"
         id="use940" />
      <use
         xlink:href="#c"
         transform="rotate(144)"
         id="use942" />
      <use
         xlink:href="#c"
         transform="rotate(-144)"
         id="use944" />
    </g>
    <use
       id="star1"
       xlink:href="#star"
       transform="scale(31.5)" />
    <use
       id="star2"
       xlink:href="#star"
       transform="scale(26.25)" />
    <use
       id="star3"
       xlink:href="#star"
       transform="scale(21)" />
    <use
       id="star4"
       xlink:href="#star"
       transform="scale(15)" />
    <use
       id="star5"
       xlink:href="#star"
       transform="scale(10.5)" />
  </defs>
  <rect
     x="-2100"
     y="-1470"
     width="100%"
     height="100%"
     fill="#009b3a"
     id="rect954"
     ry="166.98732" />
  <path
     d="M -1743,0 0,1113 1743,0 0,-1113 Z"
     fill="#fedf00"
     id="path956" />
  <circle
     r="735"
     fill="#002776"
     id="circle958"
     cx="0"
     cy="0" />
  <clipPath
     id="band">
    <circle
       r="735"
       id="circle960"
       cx="0"
       cy="0" />
  </clipPath>
  <path
     d="m -2205,1470 a 1785,1785 0 0 1 3570,0 h -105 a 1680,1680 0 1 0 -3360,0 z"
     clip-path="url(#band)"
     fill="#ffffff"
     id="path963" />
  <g
     fill="#009b3a"
     transform="translate(-420,1470)"
     id="g995">
    <use
       xlink:href="#O"
       y="-1697.5"
       transform="rotate(-7)"
       id="use965" />
    <use
       xlink:href="#R"
       y="-1697.5"
       transform="rotate(-4)"
       id="use967" />
    <use
       xlink:href="#D"
       y="-1697.5"
       transform="rotate(-1)"
       id="use969" />
    <use
       xlink:href="#E"
       y="-1697.5"
       transform="rotate(2)"
       id="use971" />
    <use
       xlink:href="#M"
       y="-1697.5"
       transform="rotate(5)"
       id="use973" />
    <use
       xlink:href="#e"
       y="-1697.5"
       transform="rotate(9.75)"
       id="use975" />
    <use
       xlink:href="#P"
       y="-1697.5"
       transform="rotate(14.5)"
       id="use977" />
    <use
       xlink:href="#R"
       y="-1697.5"
       transform="rotate(17.5)"
       id="use979" />
    <use
       xlink:href="#O"
       y="-1697.5"
       transform="rotate(20.5)"
       id="use981" />
    <use
       xlink:href="#G"
       y="-1697.5"
       transform="rotate(23.5)"
       id="use983" />
    <use
       xlink:href="#R"
       y="-1697.5"
       transform="rotate(26.5)"
       id="use985" />
    <use
       xlink:href="#E"
       y="-1697.5"
       transform="rotate(29.5)"
       id="use987" />
    <use
       xlink:href="#S"
       y="-1697.5"
       transform="rotate(32.5)"
       id="use989" />
    <use
       xlink:href="#S"
       y="-1697.5"
       transform="rotate(35.5)"
       id="use991" />
    <use
       xlink:href="#O"
       y="-1697.5"
       transform="rotate(38.5)"
       id="use993" />
  </g>
  <use
     id="αCMi"
     xlink:href="#star1"
     x="-600"
     y="-132" />
  <use
     id="αCMa"
     xlink:href="#star1"
     x="-535"
     y="177" />
  <use
     id="βCMa"
     xlink:href="#star2"
     x="-625"
     y="243" />
  <use
     id="γCMa"
     xlink:href="#star4"
     x="-463"
     y="132" />
  <use
     id="δCMa"
     xlink:href="#star2"
     x="-382"
     y="250" />
  <use
     id="εCMa"
     xlink:href="#star3"
     x="-404"
     y="323" />
  <use
     id="αVir"
     xlink:href="#star1"
     x="228"
     y="-228" />
  <use
     id="αSco"
     xlink:href="#star1"
     x="515"
     y="258" />
  <use
     id="βSco"
     xlink:href="#star3"
     x="617"
     y="265" />
  <use
     id="εSco"
     xlink:href="#star2"
     x="545"
     y="323" />
  <use
     id="θSco"
     xlink:href="#star2"
     x="368"
     y="477" />
  <use
     id="ιSco"
     xlink:href="#star3"
     x="367"
     y="551" />
  <use
     id="κSco"
     xlink:href="#star3"
     x="441"
     y="419" />
  <use
     id="λSco"
     xlink:href="#star2"
     x="500"
     y="382" />
  <use
     id="μSco"
     xlink:href="#star3"
     x="365"
     y="405" />
  <use
     id="αHya"
     xlink:href="#star2"
     x="-280"
     y="30" />
  <use
     id="γHya"
     xlink:href="#star3"
     x="200"
     y="-37" />
  <use
     id="αCru"
     xlink:href="#star1"
     y="330" />
  <use
     id="βCru"
     xlink:href="#star2"
     x="85"
     y="184" />
  <use
     id="γCru"
     xlink:href="#star2"
     y="118" />
  <use
     id="δCru"
     xlink:href="#star3"
     x="-74"
     y="184" />
  <use
     id="εCru"
     xlink:href="#star4"
     x="-37"
     y="235" />
  <use
     id="αTrA"
     xlink:href="#star2"
     x="220"
     y="495" />
  <use
     id="βTrA"
     xlink:href="#star3"
     x="283"
     y="430" />
  <use
     id="γTrA"
     xlink:href="#star3"
     x="162"
     y="412" />
  <use
     id="αCar"
     xlink:href="#star1"
     x="-295"
     y="390" />
  <use
     id="σOct"
     xlink:href="#star5"
     y="575" />
</svg>
